SERC_FKNMS_WQ_297 Report – dep-seacar-data-compare
…
imars_count <- imars_data %>%
  group_by(ParameterName) %>%
  summarise(count = n())

# Combine and display the results
comparison_count <- full_join(seacar_count, imars_count, by = "ParameterName", suffix = c("_SEACAR", "_FCRUWQD"))

# TODO: print all rows here
comparison_count

# A tibble: 22 × 3
   ParameterName                             count_SEACAR count_FCRUWQD
   <chr>                                            <int>         <int>
 1 Ammonium, Filtered (NH4)                         26070            NA
 2 Chlorophyll a, Uncorrected for Pheophytin        16171            NA
 3 Dissolved Oxygen                                 32280            NA
 4 Dissolved Oxygen Saturation                      25531            NA
 5 Light Extinction Coefficient                     10436            NA
 6 NO2+3, Filtered                                  20636            NA
 7 Nitrite (NO2)                                     5776            NA
 8 Salinity                                         31952            NA
 9 Total Nitrogen                                   26749            NA
10 Total Phosphorus                                 26833            NA
# ℹ 12 more rows
…
